Home Credit — EDA & Modeling
…
##  2 Co-op apartment          1     89    0.03
##  3 House / apartment        0 251596   81.8 
##  4 House / apartment        1  21272    6.92
##  5 Municipal apartment      0  10228    3.33
##  6 Municipal apartment      1    955    0.31
##  7 Office apartment         0   2445    0.8 
##  8 Office apartment         1    172    0.06
##  9 Rented apartment         0   4280    1.39
## 10 Rented apartment         1    601    0.2 
## 11 With parents             0  13104    4.26
## 12 With parents             1   1736    0.56
## 
## 
## ==== OCCUPATION_TYPE ====
## # A tibble: 38 × 4
##    OCCUPATION_TYPE  TARGET Count Percent
##    <chr>             <int> <int>   <dbl>
##  1 ""                    0 90113   29.3 
##  2 ""                    1  6278    2.04
##  3 "Accountants"         0  9339    3.04
##  4 "Accountants"         1   474    0.15
##  5 "Cleaning staff"      0  4206    1.37
##  6 "Cleaning staff"      1   447    0.15
##  7 "Cooking staff"       0  5325    1.73
##  8 "Cooking staff"       1   621    0.2 
##  9 "Core staff"          0 25832    8.4 
## 10 "Core staff"          1  1738    0.57
## # ℹ 28 more rows
## 
## 
## ==== WEEKDAY_APPR_PROCESS_START ====
…
##  4 MONDAY                          1  3934    1.28
##  5 SATURDAY                        0 31182   10.1 
##  6 SATURDAY                        1  2670    0.87
##  7 SUNDAY                          0 14898    4.84
##  8 SUNDAY                          1  1283    0.42
##  9 THURSDAY                        0 46493   15.1 
## 10 THURSDAY                        1  4098    1.33
## 11 TUESDAY                         0 49400   16.1 
## 12 TUESDAY                         1  4501    1.46
## 13 WEDNESDAY                       0 47696   15.5 
## 14 WEDNESDAY                       1  4238    1.38
## 
## 
## ==== ORGANIZATION_TYPE ====
## # A tibble: 116 × 4
##    ORGANIZATION_TYPE      TARGET Count Percent
##    <chr>                   <int> <int>   <dbl>
##  1 Advertising                 0   394    0.13
##  2 Advertising                 1    35    0.01
##  3 Agriculture                 0  2197    0.71
##  4 Agriculture                 1   257    0.08
##  5 Bank                        0  2377    0.77
##  6 Bank                        1   130    0.04
##  7 Business Entity Type 1      0  5497    1.79
##  8 Business Entity Type 1      1   487    0.16
##  9 Business Entity Type 2      0  9653    3.14
## 10 Business Entity Type 2      1   900    0.29
## # ℹ 106 more rows
## 
## 
## ==== FONDKAPREMONT_MODE ====
…
